name,barcode
OKI C3300/3400 TAMBOUR JAUNE,5031713032076
Dymo 12746 Junior Light Blue,5411313127462
Transfer Belt/50000s C3300/34/3520/3530,5031713031987
ETIQUETTE 89X41MM BLANC,5411313113564
Fuser/50000sh f C34x0/3600/3530MFP/MC360,5031713031970
ETIQUETTE MULTIFUNC 19X51MM,5411313113557
FUSEUR OKI 30K PG C3300/MC350,5031713031963
ETIQUETTE MULTIFUNCT. 57X32MM,5411313113540
TAMBOUR OKI C5800 5900 NOIR,5031713031772
ETIQ ROUL LABELWRITER 13X25,5411313113533
OKI C5800 5900 DRUM CYAN,5031713031727
OKI C5800 5900 DRUM MAGENTA,5031713031710
ROUL.ETIQUET.BLANC 25X54 EL60,5411313113526
OKI C5800 5900 DRUM JAUNE,5031713031703
RhinoPRO 6000 ABC 24mm Box,5411313001694
OKI C5800 5900 TONER NOIR 6K,5031713031680
Toner/black 22000sh f B6500,5031713929130
OKI C5600-C5900 FUSER UNIT 60K,5031713031536
Toner/2200sh f B25x0MFP/OF2510/OO2530,5031713928997
OKI 09004391 Toner Cartridge,5031713928546
OKI BLACK TAMBOUR C5600,5031713031482
OKI CYAAN TAMBOUR C5600,5031713031475
Toner/Black 3000sh f OKIFAX 4515,5031713926443
Drum/black 20000sh f B4520/25/4540/45MFP,5031713926245
OKI MAGENTA TAMBOUR C5600,5031713031468
OKI JAUNE TAMBOUR C5600,5031713031451
Toner/black 12000sh fB4520/25/4540/45MFP,5031713926238
OKI CYAAN TONER C5601,5031713031413
Toner/black 6000sh f B4520/25/4540/45MFP,5031713926221
OKI B6300 TONER NOIR 17K,5031713925811
OKI MAGENTA TONER C5600,5031713031406
OKI JAUNE TONER C5600,5031713031390
TONER OKI B6200/B6250/B6300,5031713925804
OKI B4200 DRUM-UNIT 25K,5031713925064
OKI BLACK TONER C5601,5031713031260
OKI C5100 TONER JAUNE 5K,5031713925040
OKI C5800 5900 TONER CYAN,5031713031253
OKI C5100 TONER MAGENTA 5K,5031713925033
OKI C5800 5900 TONER MAGENTA,5031713031246
OKI C5100 TONER NOIR 5K,5031713925026
OKI C5800 5900 TONER JAUNE,5031713031239
OKI C5100 TONER CYAN 5K,5031713925019
Toner/CMYK-Kit 15000sh f C96x0/98x0,5031713028895
OKI C5100 DRUM NOIR 17K,5031713925002
OKI C5250 5450 TONER NOIR 3K,5031713027744
OKI C5100 DRUM MAGENTA 17K,5031713924982
Toner/Cyan 3000sh f C5x50/5510/5540MFP,5031713027737
OKI C5100 DRUM JAUNE 17K,5031713924975
Toner/Magenta 3000sh fC5x50/5510/5540MFP,5031713027720
Toner/cyan 10000sh f Okipage C7200 C7400,5031713921790
Toner/Yellow 3000sh f C5x50/5510/5540MFP,5031713027713
OKI C5250 5450 5510 5540 TONER,5031713027669
OKI RUBAN ML590/591 NYLON/NOIR,5031713552000
OKI C5250 5450 TONER BLAUW 5K,5031713027652
TONER OKI PAGE 8P/8W,5031713451839
DRUM OKI PAGE 8P/8W,5031713451792
OKI C5250 5450 TONER MAGENTA,5031713027645
OKI C5250 5450 TONER JAUNE,5031713027638
OKI RUBAN ML3410 NYLON/NOIR,5031713356004
OKI C5250 5450 DRUM NOIR 17K,5031713027621
OKI RUBAN ML393/394 NYLON/NOIR,5031713354000
OKI C5250 5450 TONER BLAUW 3K,5031713027614
OKI ML390/320 FLATBED NOIR,5031713353003
OKI C5250 5450 TNR MAGENTA 17,5031713027607
RUBAN ML 390/391/380 OKI 390,5031713352006
OKI C5250 5450 DRUM JAUNE 17K,5031713027591
RUBAN ML 182/192/280/320..OKI,5031713351009
BROTHER TN-2220 TONER 2600 PAG,4977766682862
BROTHER TN-2210 TONER 1200 PAG,4977766682800
BROTHER TN-2010 TONER 1000 PAG,4977766682718
LT300CL BROTHER HL4150CDN TRAY Paper Tray for 500sheets,4977766679619
BROTHER TN-328Y JAUNE 6K,4977766679459
BROTHER TN-328M MAGENTA 6K,4977766679442
BROTHER TN-328C CYAN 6K,4977766679435
BROTHER TN-328BK NOIR 6K,4977766679428
"TONER BROTHER TN-325 YELL 3,5K",4977766679411
"TONER BROTHER TN-325 MAG 3,5K",4977766679404
"TONER BROTHER TN-325 CYAN 3,5K",4977766679398
TONER BROTHER TN-325 NOIR 4K,4977766679381
BROTHER TN-320Y JNE 1500 pages,4977766679374
BROTHER TN-320M MAG 1500 pages,4977766679367
BROTHER TN-320C CYAN 1500 page,4977766679350
Thermal Paper A4 100 sheets,4977766677233
PT 9700PC,4977766675802
BROTHER LC-985Y JAUNE 260 PG,4977766675444
BROTHER LC-985M MAGENTA 260 PG,4977766675437
BROTHER LC-985C CYAN 260 PAG,4977766675420
BROTHER LC-985BK NOIR 300 PAG,4977766675413
MW-145BT A7 Mobile Bluetooth Printer,4977766674898
PT90 AZERTY LCD 12cps,4977766674089
WT-200CL/Waste Toner Collector,4977766641036
DRUM UNIT BROTHER 15.000 PAG,4977766667012
BROTHER TN-230 CYAN 1400 PAG,4977766666985
BROTHER TN-230 MAGENTA 1400 PG,4977766666978
TONER OKI C3200 BLACK,5031713027546
BROTHER TN-230 YELLOW 1400 PG,4977766666961
"OKI C3200 TONER NOIR 1,5K",5031713027461
BROTHER TN-230 BLACK 2200 PAG,4977766666954
Toner/Magenta 1500sh f C3200,5031713027447
DR-3200 DRUM BROTHER,4977766666008
TONERCARTR OKI C3200 YELLOW,5031713027430
Drum/black 14000sh f C3200,5031713027423
TONER BROTHER TN-3280 8000 PG,4977766665988
Drum/cyan 14000sh f C3200,5031713027416
TONER BROTHER TN-3230,4977766665964
Drum/magenta 14000sh f C3200,5031713027409
ribbon black/white 54 mm,4977766665759
DR-2005 DRUM BROTHER (12k pg),4977766662390
Drum/yellow 14000sh f C3200,5031713027393
BROTHER TN-2005 TONER 1500 PAG,4977766662376
OKI C9600 C9800 WASTE TONERBOX,5031713027003
BROTHER LC-1100Y JAUNE (325P),4977766659789
OKI C9600 C9800 TRANSFER BELT,5031713026990
BROTHER LC-1100M MAGENTA(325P),4977766659758
BROTHER LC-1100C CYAN (325P),4977766659710
OKI C9600/C9800 TONER NOIR 15,5031713026846
BROTHER LC-1100BK NOIR (450P),4977766659680
OKI C9600 C9800 TONER CYAAN,5031713026839
BROTHER LC-980Y JAUNE 300 PAG,4977766659659
OKI C9600 C9800 TONER MAGENTA,5031713026822
BROTHER LC-980M MAGENTA 300PAG,4977766659628
OKI C9600 C9800 TONER JAUNE,5031713026815
BROTHER LC-980C CYAN 300 PAG,4977766659598
OKI C9600 C9800 DRUM NOIR,5031713026570
BROTHER LC-980BK NOIR 350P,4977766659567
OKI TAMB 42918107 CYAN,5031713026563
OKI C9600 C9800 DRUM MAGENTA,5031713026556
Premium photographic paper/A3 20sh,4977766658409
BROTHER TN-2120 TONER 2600 PAG,4977766654203
OKI C9600 C9800 DRUM JAUNE,5031713026549
BROTHER TN-2110 TONER 1500 PAG,4977766654180
TONER OKI C5200 BLACK,5031713025801
DRUM 12.000 COPIES BROTHER,4977766654166
TONER OKI C5200 CYAAN,5031713025795
BROTHER QL-570 LABELPRINTER,4977766654739
TONER OKI C5200 MAGENTA,5031713025788
OKI TRANSFER KIT C3100 3200,5031713020677
QL 1060N/FR 300dpi Network,4977766654753
BROTHER LC-970 JAUNE INKTCART.,4977766648523
OKI RUBAN MICROLINE 5500 NOIR,5031713019589
BROTHER LC-970 MAGENTA INKTCAR,4977766648516
Toner/4c 5000sh f C5100n C5300n,5031713017158
BROTHER LC-970 CYAN INKTCART.,4977766648509
OKI B4200/4300 TONER BLK 3K,5031713015994
BROTHER LC-970 NOIR INKTCART.,4977766648493
TONER OKI B4300/4350,5031713015949
DRUM UNIT BROTHER DR-130CL,4977766648172
RUBAN OKI MICROLINE 4410 NOIR,5031713002000
BROTHER TN-135Y YELLOW TONER,4977766648165
Label roll 102mm 27 meter,5014047600135
BROTHER JAUNE LC-125XLY,4977766713962
BROTHER TN-135M MAGENTA TONER,4977766648158
BROTHER MAGENTA LC-125XLM,4977766713955
BROTHER TN-135C CYAN TONER,4977766648141
BROTHER CYAN LC-125XLC,4977766713948
BROTHER TN-135BK BLACK TONER,4977766648134
BROTHER NOIR LC-127XLBK,4977766713931
BROTHER TN-130 YELLOW 1500 PAG,4977766648127
BROTHER JAUNE LC-123Y,4977766713924
BROTHER TN-130 MAGENTA 1500PAG,4977766648110
BROTHER MAGENTA LC-123M,4977766713917
BROTHER TN-130 CYAN 1500 PAG,4977766648103
BROTHER CYAN LC-123C,4977766713900
BROTHER TN-130 BLACK 2500 PAG,4977766648097
BROTHER NOIR LC-123BK,4977766713894
CARTRIDGE BROTHER YELLOW,4977766643962
BROTHER QL-720NW ETIQUETTEUSE,4977766712095
CARTRIDGE BROTHER MAGENTHE,4977766643931
CARTRIDGE BROTHER CYAAN,4977766643900
Labelprinter QL-710W,4977766711944
BROTHER TN3380 NOIR 8K,4977766708920
CARTRIDGE BROTHER NOIR,4977766643870
BROTHER TN3380 NOIR 8K,4977766708906
TN3130 KIT TONER HL5250 3500P,4977766636704
BROTHER SYST DE LETTRAGE QL-70,4977766707107
Sheet Feeder/A4 250sh,4977766636643
BROTHER LC-1220Y JAUNE (300P),4977766696388
DR3100 TAMB HL5250 25000P,4977766636629
BROTHER LC-1220M MAGENTA (300P,4977766696371
TONER BROTHER TN3170,4977766636612
BROTHER LC-1220C CYAN (300P),4977766696364
P-touch QL-650TD/NON noMB 300dpi USB,4977766634472
BROTHER LC-1220BK NOIR (300P),4977766696357
CUTTER(X2) QL 500/550,4977766630887
DRUM 12.000 COPIES BROTHER,4977766630733
Mobile Thermic Printer A4 6ppm 300ppp BT,4977766695831
Mobile Thermic Printer A4 6ppm 200ppp BT,4977766695824
TONER BROTHER HL2030/40/70,4977766630726
Mobile Thermic Printer A4 6ppm 300ppp,4977766695817
PAPER INK-JET A4 70 g/m2 250 SHEETS,4977766628501
Label tape/trans 62mmx15.24m f QL-series,4977766628235
Mobile Thermic Print PJ622 A4 6ppm 200pp,4977766695800
ETIQ CONTINUE PAPIER BL 62/30M,4977766628198
TONER LC1240 JAUNE 600PG,4977766694032
BT 400 ETIQUET PAPIER 17X54MM,4977766628167
TONER LC1240 MAG 600PG,4977766694025
BT 300 ETIQ PAPIER 62X100MM,4977766628143
TONER LC1240 CY 600PG,4977766694018
BT 800 ETIQ ADRESSE PAP. 29X62,4977766628136
TONER LC1240BK NR 600PG,4977766694001
